<svg width="348" height="348" viewBox="0 0 348 348" fill="none" xmlns="http://www.w3.org/2000/svg">
<g clip-path="url(#clip0_2_67)">
<path d="M173.539 347.079C269.383 347.079 347.079 269.383 347.079 173.539C347.079 77.6963 269.383 0 173.539 0C77.6963 0 0 77.6963 0 173.539C0 269.383 77.6963 347.079 173.539 347.079Z" fill="url(#paint0_radial_2_67)"/>
<path d="M173.539 339.044C264.945 339.044 339.044 264.945 339.044 173.539C339.044 82.1337 264.945 8.03464 173.539 8.03464C82.1337 8.03464 8.03467 82.1337 8.03467 173.539C8.03467 264.945 82.1337 339.044 173.539 339.044Z" fill="url(#paint1_radial_2_67)"/>
<path d="M150.188 72.2289H51.2272V272.873H150.188V72.2289Z" fill="url(#paint2_linear_2_67)"/>
<path d="M172.762 124.027L291.54 272.873H53.9836L172.762 124.027Z" fill="url(#paint3_linear_2_67)"/>
<path d="M192.595 52.7876C192.595 52.7876 231.136 61.4704 232.803 96.0082Z" fill="url(#paint4_linear_2_67)"/>
<path d="M192.595 52.7876C192.595 52.7876 231.136 61.4704 232.803 96.0082" stroke="black" stroke-width="0.25" stroke-miterlimit="10"/>
<path d="M232.803 96.0082C232.803 96.0414 232.803 96.0747 232.812 96.108C232.723 96.0192 208.311 101.346 192.598 52.7876" fill="url(#paint5_linear_2_67)"/>
<path d="M232.803 96.0082C232.803 96.0414 232.803 96.0747 232.812 96.108C232.723 96.0192 208.311 101.346 192.598 52.7876" stroke="black" stroke-width="0.25" stroke-miterlimit="10"/>
<path d="M192.595 52.7876L232.803 96.0082Z" fill="white"/>
<path d="M192.595 52.7876L232.803 96.0082" stroke="black" stroke-width="0.25" stroke-miterlimit="10"/>
<path d="M217.362 51.9885L225.617 29.5031V245.464L211.681 240.722V180.352V84.4789C211.681 73.3825 213.634 62.4636 217.362 51.9885H217.362Z" fill="url(#paint6_linear_2_67)" stroke="black" stroke-width="0.25" stroke-miterlimit="10"/>
<path d="M207.064 261.134C207.064 261.134 207.242 261.045 207.508 260.956C207.863 260.779 208.307 260.601 208.928 260.246C210.26 259.625 212.124 258.648 214.432 257.317C216.829 255.985 219.581 254.21 222.777 252.079C225.884 249.949 229.346 247.374 232.808 244.267C236.359 241.16 239.909 237.609 243.372 233.615C246.745 229.531 250.029 224.915 252.693 219.855C255.356 214.706 257.486 209.114 258.818 203.255C258.995 202.545 259.173 201.746 259.262 201.036L259.617 198.816C259.883 197.307 259.972 195.798 260.149 194.289L260.238 193.135V192.869C260.238 192.869 260.238 192.78 260.238 192.869V192.78V192.602V191.981L260.327 189.584C260.416 187.986 260.327 186.477 260.327 184.879C260.238 178.665 259.617 172.362 258.729 166.237C257.841 160.112 256.51 154.075 255.089 148.305C252.16 136.765 248.52 126.29 245.058 117.413C241.596 108.536 238.223 101.256 235.826 96.2852C234.583 93.7996 233.607 91.8466 232.897 90.515C232.186 89.1835 231.831 88.4733 231.831 88.4733L234.228 87.1418C234.228 87.1418 234.583 87.852 235.382 89.1835C236.092 90.515 237.158 92.4681 238.4 94.9537C240.975 99.9249 244.437 107.204 248.165 116.081C251.894 124.958 255.799 135.611 258.995 147.24C262.191 158.869 264.677 171.652 265.121 184.702C265.121 186.299 265.209 188.075 265.209 189.584V191.981V192.602V192.78V192.957V193.224L265.121 194.467C265.032 196.153 264.943 197.751 264.677 199.349L264.322 201.746C264.144 202.545 263.966 203.344 263.878 204.143C262.546 210.534 260.416 216.659 257.575 222.252C254.734 227.756 251.361 232.816 247.81 237.254C244.259 241.693 240.531 245.51 236.891 248.795C233.252 252.079 229.701 254.92 226.416 257.228C223.132 259.536 220.202 261.4 217.717 262.909C215.231 264.418 213.278 265.484 211.858 266.194C211.148 266.549 210.615 266.815 210.26 266.993C209.905 267.17 209.638 267.259 209.638 267.259L209.372 267.082C207.597 265.927 206.62 263.531 207.064 261.134H207.064Z" fill="url(#paint7_linear_2_67)" stroke="black" stroke-width="0.25" stroke-miterlimit="10" stroke-linejoin="round"/>
<path d="M233.873 51.9885L225.617 29.5031V255.518L239.554 250.776V180.352V84.4789C239.554 73.3825 237.601 62.4636 233.873 51.9885H233.873Z" fill="url(#paint8_linear_2_67)" stroke="black" stroke-width="0.25" stroke-miterlimit="10"/>
<path d="M211.769 232.381V292.914H225.617H239.554V232.381H211.769Z" fill="url(#paint9_linear_2_67)" stroke="black" stroke-width="0.25" stroke-miterlimit="10"/>
<path d="M239.192 240.55L211.939 250.758V251.637L239.192 241.428V240.55ZM239.384 249.189L212.131 259.398V260.277L239.384 250.068V249.189ZM239.384 258.073L212.028 268.32V269.202L239.384 258.954V258.073ZM239.384 266.53L212.028 276.777V277.659L239.384 267.412V266.53ZM239.384 275.144L212.028 285.391V286.273L239.384 276.026V275.144ZM239.384 283.914L212.028 294.162V295.043L239.384 284.796V283.914Z" fill="#4D4D4D"/>
<path d="M267.627 189.865C267.33 189.951 267.029 190.036 266.725 190.117C266.725 190.117 265.841 155.806 294.344 136.963" fill="url(#paint10_linear_2_67)"/>
<path d="M267.627 189.865C267.33 189.951 267.029 190.036 266.725 190.117C266.725 190.117 265.841 155.806 294.344 136.963" stroke="black" stroke-width="0.25" stroke-miterlimit="10"/>
<path d="M294.344 136.963C294.4 136.927 294.455 136.89 294.51 136.854C294.538 137.063 300.527 180.277 267.627 189.865" fill="url(#paint11_linear_2_67)"/>
<path d="M294.344 136.963C294.4 136.927 294.455 136.89 294.51 136.854C294.538 137.063 300.527 180.277 267.627 189.865" stroke="black" stroke-width="0.25" stroke-miterlimit="10"/>
<path d="M263.789 68.7664C263.789 68.7664 283.762 119.81 255.8 137.564Z" fill="url(#paint12_linear_2_67)"/>
<path d="M263.789 68.7664C263.789 68.7664 283.762 119.81 255.8 137.564" stroke="black" stroke-width="0.25" stroke-miterlimit="10"/>
<path d="M255.8 137.564C255.8 137.564 239.998 91.1368 263.789 68.7664Z" fill="url(#paint13_linear_2_67)"/>
<path d="M255.8 137.564C255.8 137.564 239.998 91.1368 263.789 68.7664" stroke="black" stroke-width="0.25" stroke-miterlimit="10"/>
<path d="M302.457 194.664C302.009 199.509 297.068 234.385 244.088 241.871Z" fill="url(#paint14_linear_2_67)"/>
<path d="M302.457 194.664C302.009 199.509 297.068 234.385 244.088 241.871" stroke="black" stroke-width="0.25" stroke-miterlimit="10"/>
<path d="M197.654 142.447C219.848 161.055 241.291 175.145 262.369 191.715" stroke="black" stroke-width="0.25" stroke-miterlimit="10"/>
<path d="M197.655 142.447C197.655 142.447 247.81 147.595 262.28 190.65C262.28 190.644 262.106 190.661 261.773 190.683" fill="url(#paint15_linear_2_67)"/>
<path d="M197.655 142.447C197.655 142.447 247.81 147.595 262.28 190.65C262.28 190.644 262.106 190.661 261.773 190.683" stroke="black" stroke-width="0.25" stroke-miterlimit="10"/>
<path d="M261.773 190.683C256.783 191.028 216.215 192.802 197.655 142.447Z" fill="url(#paint16_linear_2_67)"/>
<path d="M261.773 190.683C256.783 191.028 216.215 192.802 197.655 142.447" stroke="black" stroke-width="0.25" stroke-miterlimit="10"/>
<path d="M197.655 142.447L262.369 191.715Z" fill="white"/>
<path d="M197.655 142.447L262.369 191.715" stroke="black" stroke-width="0.25" stroke-miterlimit="10"/>
<path d="M294.421 136.854C285.116 156.016 276.475 173.775 266.725 191.715Z" fill="url(#paint17_linear_2_67)"/>
<path d="M294.421 136.854C285.116 156.016 276.475 173.775 266.725 191.715" stroke="black" stroke-width="0.25" stroke-miterlimit="10"/>
<path d="M252.249 138.452C233.205 126.231 214.259 114.527 198.72 97.9722" stroke="black" stroke-width="0.25" stroke-miterlimit="10"/>
<path d="M263.789 68.7664C261.644 91.9427 258.738 115.882 255.8 135.345V137.564" stroke="black" stroke-width="0.25" stroke-miterlimit="10"/>
<path d="M250.695 137.888C246.244 139.065 211.435 143.651 197.289 96.3774Z" fill="url(#paint18_linear_2_67)"/>
<path d="M250.695 137.888C246.244 139.065 211.435 143.651 197.289 96.3774" stroke="black" stroke-width="0.25" stroke-miterlimit="10"/>
<path d="M197.289 96.3774C197.289 96.3774 239.065 100.808 251.117 137.859C251.117 137.854 250.971 137.869 250.695 137.888" fill="url(#paint19_linear_2_67)"/>
<path d="M197.289 96.3774C197.289 96.3774 239.065 100.808 251.117 137.859C251.117 137.854 250.971 137.869 250.695 137.888" stroke="black" stroke-width="0.25" stroke-miterlimit="10"/>
<path d="M197.289 96.3774L251.191 138.775Z" fill="white"/>
<path d="M197.289 96.3774L251.191 138.775" stroke="black" stroke-width="0.25" stroke-miterlimit="10"/>
<path d="M225.619 239.474V239.474L211.769 243.113L192.685 231.218H225.619" fill="url(#paint20_linear_2_67)"/>
<path d="M225.619 239.474V239.474L211.769 243.113L192.685 231.218H225.619" stroke="black" stroke-width="0.25" stroke-miterlimit="10" stroke-linecap="round" stroke-linejoin="round"/>
<path d="M225.619 239.474V239.474L240.886 243.113L256.583 231.218H225.619" fill="url(#paint21_linear_2_67)"/>
<path d="M225.619 239.474V239.474L240.886 243.113L256.583 231.218H225.619" stroke="black" stroke-width="0.25" stroke-miterlimit="10" stroke-linecap="round" stroke-linejoin="round"/>
<path d="M193.053 231.218H250.894" stroke="black" stroke-width="0.25" stroke-miterlimit="10"/>
<path d="M225.617 231.218H256.581L239.554 218.497L225.617 222.12" fill="url(#paint22_linear_2_67)"/>
<path d="M225.617 231.218H256.581L239.554 218.497L225.617 222.12" stroke="black" stroke-width="0.25" stroke-miterlimit="10" stroke-linecap="round" stroke-linejoin="round"/>
<path d="M225.617 231.218H192.685L211.681 218.497L225.617 222.12V222.12" fill="url(#paint23_linear_2_67)"/>
<path d="M225.617 231.218H192.685L211.681 218.497L225.617 222.12V222.12" stroke="black" stroke-width="0.25" stroke-miterlimit="10" stroke-linecap="round" stroke-linejoin="round"/>
<path d="M244.088 241.871C243.875 241.817 264.553 201.203 302.5 194.112C302.5 194.148 302.488 194.338 302.457 194.664" fill="url(#paint24_linear_2_67)"/>
<path d="M244.088 241.871C243.875 241.817 264.553 201.203 302.5 194.112C302.5 194.148 302.488 194.338 302.457 194.664" stroke="black" stroke-width="0.25" stroke-miterlimit="10"/>
<path d="M207.064 261.134C207.064 261.134 207.242 261.045 207.508 260.956C207.863 260.779 208.307 260.601 208.928 260.246C210.26 259.625 212.124 258.648 214.432 257.317C216.829 255.985 219.581 254.21 222.777 252.079C225.884 249.949 229.346 247.374 232.808 244.267C236.359 241.16 239.909 237.609 243.372 233.615C246.745 229.531 250.029 224.915 252.693 219.855C255.356 214.706 257.486 209.114 258.818 203.255C258.995 202.545 259.173 201.746 259.262 201.036L259.617 198.816C259.883 197.307 259.972 195.798 260.149 194.289L260.238 193.135V192.869C260.238 192.869 260.238 192.78 260.238 192.869V192.78V192.602V191.981L260.327 189.584C260.416 187.986 260.327 186.477 260.327 184.879C260.238 178.665 259.617 172.362 258.729 166.237C257.841 160.112 255.67 151.097 254.25 145.327L258.156 144.262C261.351 155.891 264.677 171.652 265.121 184.702C265.121 186.299 265.209 188.075 265.209 189.584V191.981V192.602V192.78V192.957V193.224L265.121 194.467C265.032 196.153 264.943 197.751 264.677 199.349L264.322 201.746C264.144 202.545 263.966 203.344 263.878 204.143C262.546 210.534 260.416 216.659 257.575 222.252C254.734 227.756 251.361 232.816 247.81 237.254C244.259 241.693 240.531 245.51 236.891 248.795C233.252 252.079 229.701 254.92 226.416 257.228C223.132 259.536 220.202 261.4 217.717 262.909C215.231 264.418 213.278 265.484 211.858 266.194C211.148 266.549 210.615 266.815 210.26 266.993C209.905 267.17 209.638 267.259 209.638 267.259L209.372 267.082C207.597 265.927 206.62 263.531 207.064 261.134H207.064Z" fill="url(#paint25_linear_2_67)" stroke="black" stroke-width="0.25" stroke-miterlimit="10" stroke-linejoin="round"/>
<path d="M254.912 145.287C251.805 145.287 249.319 142.802 249.319 139.695C249.319 136.588 251.805 134.102 254.912 134.102C258.019 134.102 260.504 136.588 260.504 139.695C260.504 142.802 258.019 145.287 254.912 145.287V145.287Z" fill="url(#paint26_radial_2_67)" stroke="black" stroke-width="0.25"/>
<path d="M262.28 197.662C258.995 197.662 256.332 194.999 256.332 191.715C256.332 188.43 258.995 185.767 262.28 185.767C265.564 185.767 268.227 188.43 268.227 191.715C268.227 194.999 265.564 197.662 262.28 197.662Z" fill="url(#paint27_radial_2_67)" stroke="black" stroke-width="0.25"/>
<path d="M244.088 241.871C244.088 241.871 285.65 208.365 302.471 194.507" stroke="black" stroke-width="0.25" stroke-miterlimit="10"/>
<path d="M132.283 90.3031H104.043V106.853H132.283V90.3031Z" fill="url(#paint28_radial_2_67)"/>
<path d="M132.283 113.048H104.043V129.598H132.283V113.048Z" fill="url(#paint29_radial_2_67)"/>
<path d="M132.283 135.793H104.043V152.343H132.283V135.793Z" fill="url(#paint30_radial_2_67)"/>
<path d="M97.3717 90.3031H69.1322V106.853H97.3717V90.3031Z" fill="url(#paint31_radial_2_67)"/>
<path d="M97.3717 113.048H69.1322V129.598H97.3717V113.048Z" fill="url(#paint32_radial_2_67)"/>
<path d="M97.3717 135.793H69.1322V152.343H97.3717V135.793Z" fill="url(#paint33_radial_2_67)"/>
<path d="M245.397 290.872H205.837C204.995 290.872 204.312 291.555 204.312 292.397V300.621C204.312 301.463 204.995 302.146 205.837 302.146H245.397C246.24 302.146 246.922 301.463 246.922 300.621V292.397C246.922 291.555 246.24 290.872 245.397 290.872Z" fill="url(#paint34_linear_2_67)" stroke="black" stroke-width="0.25" stroke-linecap="square"/>
</g>
<defs>
<radialGradient id="paint0_radial_2_67" cx="0" cy="0" r="1" gradientUnits="userSpaceOnUse" gradientTransform="translate(305.307 18.7046) rotate(160.712) scale(447.714 369.711)">
<stop stop-color="#75A0D1"/>
<stop offset="0.663585" stop-color="#5397CC"/>
<stop offset="1" stop-color="#1261AC"/>
</radialGradient>
<radialGradient id="paint1_radial_2_67" cx="0" cy="0" r="1" gradientUnits="userSpaceOnUse" gradientTransform="translate(135.825 305.379) rotate(0.86337) scale(325.29 288.281)">
<stop stop-color="#E26510"/>
<stop offset="1" stop-color="#F6A423"/>
</radialGradient>
<linearGradient id="paint2_linear_2_67" x1="69.0208" y1="58.3661" x2="75.4074" y2="280.831" gradientUnits="userSpaceOnUse">
<stop stop-color="#183F54"/>
<stop offset="1" stop-color="#071319"/>
</linearGradient>
<linearGradient id="paint3_linear_2_67" x1="173.539" y1="173.539" x2="161.15" y2="274.222" gradientUnits="userSpaceOnUse">
<stop stop-color="#0383C2"/>
<stop offset="1" stop-color="#0163A6"/>
</linearGradient>
<linearGradient id="paint4_linear_2_67" x1="196.22" y1="62.0917" x2="227.62" y2="80.7191" gradientUnits="userSpaceOnUse">
<stop stop-color="#CCD0D4"/>
<stop offset="1" stop-color="#BDBDBD"/>
</linearGradient>
<linearGradient id="paint5_linear_2_67" x1="195.155" y1="62.6239" x2="218.572" y2="98.2822" gradientUnits="userSpaceOnUse">
<stop stop-color="#C1BDC0"/>
<stop offset="1" stop-color="#989898"/>
</linearGradient>
<linearGradient id="paint6_linear_2_67" x1="211.681" y1="29.5031" x2="224.903" y2="163.763" gradientUnits="userSpaceOnUse">
<stop stop-color="#F5F5F5"/>
<stop offset="1" stop-color="#D4D4D4"/>
</linearGradient>
<linearGradient id="paint7_linear_2_67" x1="239.554" y1="84.4789" x2="268.869" y2="174.113" gradientUnits="userSpaceOnUse">
<stop stop-color="#C4C6C9"/>
<stop offset="1" stop-color="#9C9EA1"/>
</linearGradient>
<linearGradient id="paint8_linear_2_67" x1="229.71" y1="59.6173" x2="234.421" y2="219.831" gradientUnits="userSpaceOnUse">
<stop stop-color="#D2D0D1"/>
<stop offset="1" stop-color="#B0B0B0"/>
</linearGradient>
<linearGradient id="paint9_linear_2_67" x1="215.912" y1="238.786" x2="238.797" y2="289.879" gradientUnits="userSpaceOnUse">
<stop stop-color="#E9E9E9"/>
<stop offset="1" stop-color="#B8B9B6"/>
</linearGradient>
<linearGradient id="paint10_linear_2_67" x1="289.357" y1="141.391" x2="264.343" y2="174.921" gradientUnits="userSpaceOnUse">
<stop stop-color="#EDEDED"/>
<stop offset="1" stop-color="#D0DBD3"/>
</linearGradient>
<linearGradient id="paint11_linear_2_67" x1="291.54" y1="153.5" x2="268.227" y2="197.662" gradientUnits="userSpaceOnUse">
<stop stop-color="#818181"/>
<stop offset="1" stop-color="#7B7C7C"/>
</linearGradient>
<linearGradient id="paint12_linear_2_67" x1="267.344" y1="86.7131" x2="254.912" y2="133.343" gradientUnits="userSpaceOnUse">
<stop stop-color="#9FA3A3"/>
<stop offset="1" stop-color="#6C6C6C"/>
</linearGradient>
<linearGradient id="paint13_linear_2_67" x1="257.559" y1="84.8315" x2="247.398" y2="119.454" gradientUnits="userSpaceOnUse">
<stop stop-color="#E0E0E0"/>
<stop offset="1" stop-color="#BABFC2"/>
</linearGradient>
<linearGradient id="paint14_linear_2_67" x1="256.583" y1="243.113" x2="291.54" y2="212" gradientUnits="userSpaceOnUse">
<stop stop-color="#61615D"/>
<stop offset="1" stop-color="#7F7F7F"/>
</linearGradient>
<linearGradient id="paint15_linear_2_67" x1="216.444" y1="150.439" x2="261.149" y2="168.534" gradientUnits="userSpaceOnUse">
<stop stop-color="#DBDBD9"/>
<stop offset="1" stop-color="#A9AEAA"/>
</linearGradient>
<linearGradient id="paint16_linear_2_67" x1="207.928" y1="163.744" x2="253.698" y2="191.419" gradientUnits="userSpaceOnUse">
<stop stop-color="#A7ACA9"/>
<stop offset="1" stop-color="#6C6C6C"/>
</linearGradient>
<linearGradient id="paint17_linear_2_67" x1="292.55" y1="153.632" x2="280.841" y2="182.372" gradientUnits="userSpaceOnUse">
<stop stop-color="#848383"/>
<stop offset="1" stop-color="#626363"/>
</linearGradient>
<linearGradient id="paint18_linear_2_67" x1="205.267" y1="104.669" x2="253.759" y2="140.397" gradientUnits="userSpaceOnUse">
<stop stop-color="#ABABAB"/>
<stop offset="1" stop-color="#828282"/>
</linearGradient>
<linearGradient id="paint19_linear_2_67" x1="212.718" y1="104.136" x2="266.607" y2="129.882" gradientUnits="userSpaceOnUse">
<stop stop-color="#DCE0E5"/>
<stop offset="1" stop-color="#AFAFAF"/>
</linearGradient>
<linearGradient id="paint20_linear_2_67" x1="215.038" y1="226.612" x2="213.152" y2="249.288" gradientUnits="userSpaceOnUse">
<stop stop-color="#E9E9E9"/>
<stop offset="1" stop-color="#B8B9B6"/>
</linearGradient>
<linearGradient id="paint21_linear_2_67" x1="239.554" y1="227.253" x2="232.942" y2="248.898" gradientUnits="userSpaceOnUse">
<stop stop-color="#E9E9E9"/>
<stop offset="1" stop-color="#B8B9B6"/>
</linearGradient>
<linearGradient id="paint22_linear_2_67" x1="241.988" y1="219.094" x2="235.373" y2="234.663" gradientUnits="userSpaceOnUse">
<stop stop-color="#DBDBDB"/>
<stop offset="1" stop-color="#9F9F9F"/>
</linearGradient>
<linearGradient id="paint23_linear_2_67" x1="211.654" y1="219.627" x2="211.769" y2="233.931" gradientUnits="userSpaceOnUse">
<stop stop-color="#E0E0E0"/>
<stop offset="1" stop-color="#AAAAAA"/>
</linearGradient>
<linearGradient id="paint24_linear_2_67" x1="288.292" y1="198.87" x2="254.135" y2="226.728" gradientUnits="userSpaceOnUse">
<stop stop-color="#EDEDED"/>
<stop offset="1" stop-color="#D0DBD3"/>
</linearGradient>
<linearGradient id="paint25_linear_2_67" x1="309.658" y1="135.823" x2="199.019" y2="285.745" gradientUnits="userSpaceOnUse">
<stop stop-color="#BDD6DF"/>
<stop offset="1" stop-color="#5F5F5F"/>
</linearGradient>
<radialGradient id="paint26_radial_2_67" cx="0" cy="0" r="1" gradientUnits="userSpaceOnUse" gradientTransform="translate(252.249 138.452) rotate(85.1693) scale(13.3488 14.3801)">
<stop stop-color="#DBDBDB"/>
<stop offset="1" stop-color="#4A4A4A"/>
</radialGradient>
<radialGradient id="paint27_radial_2_67" cx="0" cy="0" r="1" gradientUnits="userSpaceOnUse" gradientTransform="translate(260.327 189.584) rotate(86.1679) scale(12.5302 18.2283)">
<stop stop-color="#DBDBDB"/>
<stop offset="1" stop-color="#4A4A4A"/>
</radialGradient>
<radialGradient id="paint28_radial_2_67" cx="0" cy="0" r="1" gradientUnits="userSpaceOnUse" gradientTransform="translate(84.1919 92.4577) rotate(94.5552) scale(76.5036 62.5553)">
<stop stop-color="#FBFBFB"/>
<stop offset="1" stop-color="#B3B3B3"/>
</radialGradient>
<radialGradient id="paint29_radial_2_67" cx="0" cy="0" r="1" gradientUnits="userSpaceOnUse" gradientTransform="translate(84.1919 90.2714) rotate(94.5552) scale(76.5036 62.5553)">
<stop stop-color="#FBFBFB"/>
<stop offset="1" stop-color="#B3B3B3"/>
</radialGradient>
<radialGradient id="paint30_radial_2_67" cx="0" cy="0" r="1" gradientUnits="userSpaceOnUse" gradientTransform="translate(84.1919 88.0854) rotate(94.5552) scale(76.5036 62.5553)">
<stop stop-color="#FBFBFB"/>
<stop offset="1" stop-color="#B3B3B3"/>
</radialGradient>
<radialGradient id="paint31_radial_2_67" cx="0" cy="0" r="1" gradientUnits="userSpaceOnUse" gradientTransform="translate(84.7373 92.4577) rotate(94.5552) scale(76.5036 62.5553)">
<stop stop-color="#FBFBFB"/>
<stop offset="1" stop-color="#B3B3B3"/>
</radialGradient>
<radialGradient id="paint32_radial_2_67" cx="0" cy="0" r="1" gradientUnits="userSpaceOnUse" gradientTransform="translate(84.7373 90.2714) rotate(94.5552) scale(76.5036 62.5553)">
<stop stop-color="#FBFBFB"/>
<stop offset="1" stop-color="#B3B3B3"/>
</radialGradient>
<radialGradient id="paint33_radial_2_67" cx="0" cy="0" r="1" gradientUnits="userSpaceOnUse" gradientTransform="translate(84.7374 88.0854) rotate(94.5552) scale(76.5036 62.5553)">
<stop stop-color="#FBFBFB"/>
<stop offset="1" stop-color="#B3B3B3"/>
</radialGradient>
<linearGradient id="paint34_linear_2_67" x1="201.262" y1="281.867" x2="247.965" y2="310.086" gradientUnits="userSpaceOnUse">
<stop stop-color="#ECECEC"/>
<stop offset="0.378588" stop-color="#C7C7C7"/>
<stop offset="1" stop-color="#68696A"/>
</linearGradient>
<clipPath id="clip0_2_67">
<rect width="347.079" height="347.079" fill="white"/>
</clipPath>
</defs>
</svg>
